%YAML 1.1
%TAG !u! tag:unity3d.com,2011:
--- !u!114 &11400000
MonoBehaviour:
  m_ObjectHideFlags: 0
  m_CorrespondingSourceObject: {fileID: 0}
  m_PrefabInstance: {fileID: 0}
  m_PrefabAsset: {fileID: 0}
  m_GameObject: {fileID: 0}
  m_Enabled: 1
  m_EditorHideFlags: 0
  m_Script: {fileID: 11500000, guid: 9d1514134bc4fbd41bb739b1b9a49231, type: 3}
  m_Name: New Rule Tile
  m_EditorClassIdentifier: 
  m_DefaultSprite: {fileID: -8808003755446183118, guid: df7200d94e96ef84c9b4c16661d194e1, type: 3}
  m_DefaultGameObject: {fileID: 0}
  m_DefaultColliderType: 1
  m_TilingRules:
  - m_Id: 2
    m_Sprites:
    - {fileID: 288955954318913512, guid: df7200d94e96ef84c9b4c16661d194e1, type: 3}
    m_GameObject: {fileID: 0}
    m_MinAnimationSpeed: 1
    m_MaxAnimationSpeed: 1
    m_PerlinScale: 0.5
    m_Output: 0
    m_ColliderType: 1
    m_RandomTransform: 0
    m_Neighbors: 01000000010000000200000002000000
    m_NeighborPositions:
    - {x: 1, y: 0, z: 0}
    - {x: 0, y: -1, z: 0}
    - {x: 0, y: 1, z: 0}
    - {x: -1, y: 0, z: 0}
    m_RuleTransform: 0
  - m_Id: 1
    m_Sprites:
    - {fileID: -8808003755446183118, guid: df7200d94e96ef84c9b4c16661d194e1, type: 3}
    m_GameObject: {fileID: 0}
    m_MinAnimationSpeed: 1
    m_MaxAnimationSpeed: 1
    m_PerlinScale: 0.5
    m_Output: 0
    m_ColliderType: 1
    m_RandomTransform: 0
    m_Neighbors: 02000000010000000100000001000000
    m_NeighborPositions:
    - {x: 0, y: 1, z: 0}
    - {x: -1, y: 0, z: 0}
    - {x: 1, y: 0, z: 0}
    - {x: 0, y: -1, z: 0}
    m_RuleTransform: 0
  - m_Id: 3
    m_Sprites:
    - {fileID: -5696319758470045339, guid: df7200d94e96ef84c9b4c16661d194e1, type: 3}
    m_GameObject: {fileID: 0}
    m_MinAnimationSpeed: 1
    m_MaxAnimationSpeed: 1
    m_PerlinScale: 0.5
    m_Output: 0
    m_ColliderType: 1
    m_RandomTransform: 0
    m_Neighbors: 01000000010000000200000002000000
    m_NeighborPositions:
    - {x: -1, y: 0, z: 0}
    - {x: 0, y: -1, z: 0}
    - {x: 0, y: 1, z: 0}
    - {x: 1, y: 0, z: 0}
    m_RuleTransform: 0
  - m_Id: 4
    m_Sprites:
    - {fileID: 1560476165239405316, guid: df7200d94e96ef84c9b4c16661d194e1, type: 3}
    m_GameObject: {fileID: 0}
    m_MinAnimationSpeed: 1
    m_MaxAnimationSpeed: 1
    m_PerlinScale: 0.5
    m_Output: 0
    m_ColliderType: 1
    m_RandomTransform: 0
    m_Neighbors: 02000000010000000100000001000000
    m_NeighborPositions:
    - {x: -1, y: 0, z: 0}
    - {x: 0, y: 1, z: 0}
    - {x: 1, y: 0, z: 0}
    - {x: 0, y: -1, z: 0}
    m_RuleTransform: 0
  - m_Id: 5
    m_Sprites:
    - {fileID: 1120519538316974533, guid: df7200d94e96ef84c9b4c16661d194e1, type: 3}
    m_GameObject: {fileID: 0}
    m_MinAnimationSpeed: 1
    m_MaxAnimationSpeed: 1
    m_PerlinScale: 0.5
    m_Output: 0
    m_ColliderType: 1
    m_RandomTransform: 0
    m_Neighbors: 02000000010000000100000001000000
    m_NeighborPositions:
    - {x: 1, y: 0, z: 0}
    - {x: 0, y: 1, z: 0}
    - {x: -1, y: 0, z: 0}
    - {x: 0, y: -1, z: 0}
    m_RuleTransform: 0
  - m_Id: 6
    m_Sprites:
    - {fileID: -1195193356752851175, guid: df7200d94e96ef84c9b4c16661d194e1, type: 3}
    m_GameObject: {fileID: 0}
    m_MinAnimationSpeed: 1
    m_MaxAnimationSpeed: 1
    m_PerlinScale: 0.5
    m_Output: 0
    m_ColliderType: 1
    m_RandomTransform: 0
    m_Neighbors: 0100000001000000020000000200000002000000
    m_NeighborPositions:
    - {x: 0, y: 1, z: 0}
    - {x: 1, y: 0, z: 0}
    - {x: 0, y: -1, z: 0}
    - {x: -1, y: -1, z: 0}
    - {x: -1, y: 0, z: 0}
    m_RuleTransform: 0
  - m_Id: 7
    m_Sprites:
    - {fileID: -8164410592332763570, guid: df7200d94e96ef84c9b4c16661d194e1, type: 3}
    m_GameObject: {fileID: 0}
    m_MinAnimationSpeed: 1
    m_MaxAnimationSpeed: 1
    m_PerlinScale: 0.5
    m_Output: 0
    m_ColliderType: 1
    m_RandomTransform: 0
    m_Neighbors: 0100000001000000020000000200000002000000
    m_NeighborPositions:
    - {x: 0, y: 1, z: 0}
    - {x: -1, y: 0, z: 0}
    - {x: 0, y: -1, z: 0}
    - {x: 1, y: -1, z: 0}
    - {x: 1, y: 0, z: 0}
    m_RuleTransform: 0
  - m_Id: 8
    m_Sprites:
    - {fileID: 4267492835560457545, guid: df7200d94e96ef84c9b4c16661d194e1, type: 3}
    m_GameObject: {fileID: 0}
    m_MinAnimationSpeed: 1
    m_MaxAnimationSpeed: 1
    m_PerlinScale: 0.5
    m_Output: 0
    m_ColliderType: 1
    m_RandomTransform: 0
    m_Neighbors: 02000000010000000100000001000000
    m_NeighborPositions:
    - {x: 0, y: -1, z: 0}
    - {x: -1, y: 0, z: 0}
    - {x: 1, y: 0, z: 0}
    - {x: 0, y: 1, z: 0}
    m_RuleTransform: 0
  - m_Id: 0
    m_Sprites:
    - {fileID: -3633942451017912651, guid: df7200d94e96ef84c9b4c16661d194e1, type: 3}
    m_GameObject: {fileID: 0}
    m_MinAnimationSpeed: 1
    m_MaxAnimationSpeed: 1
    m_PerlinScale: 0.5
    m_Output: 0
    m_ColliderType: 1
    m_RandomTransform: 0
    m_Neighbors: 0200000001000000010000000100000001000000
    m_NeighborPositions:
    - {x: 1, y: -1, z: 0}
    - {x: 0, y: 1, z: 0}
    - {x: -1, y: 0, z: 0}
    - {x: 0, y: -1, z: 0}
    - {x: 1, y: 0, z: 0}
    m_RuleTransform: 0
  - m_Id: 9
    m_Sprites:
    - {fileID: 558912602772392124, guid: df7200d94e96ef84c9b4c16661d194e1, type: 3}
    m_GameObject: {fileID: 0}
    m_MinAnimationSpeed: 1
    m_MaxAnimationSpeed: 1
    m_PerlinScale: 0.5
    m_Output: 0
    m_ColliderType: 1
    m_RandomTransform: 0
    m_Neighbors: 0200000001000000010000000100000001000000
    m_NeighborPositions:
    - {x: -1, y: -1, z: 0}
    - {x: -1, y: 0, z: 0}
    - {x: 0, y: 1, z: 0}
    - {x: 0, y: -1, z: 0}
    - {x: 1, y: 0, z: 0}
    m_RuleTransform: 0
  - m_Id: 10
    m_Sprites:
    - {fileID: -494310335730637883, guid: df7200d94e96ef84c9b4c16661d194e1, type: 3}
    m_GameObject: {fileID: 0}
    m_MinAnimationSpeed: 1
    m_MaxAnimationSpeed: 1
    m_PerlinScale: 0.5
    m_Output: 0
    m_ColliderType: 1
    m_RandomTransform: 0
    m_Neighbors: 0200000001000000010000000100000001000000
    m_NeighborPositions:
    - {x: 1, y: 1, z: 0}
    - {x: 0, y: 1, z: 0}
    - {x: -1, y: 0, z: 0}
    - {x: 0, y: -1, z: 0}
    - {x: 1, y: 0, z: 0}
    m_RuleTransform: 0
  - m_Id: 0
    m_Sprites:
    - {fileID: -2830531794779528838, guid: df7200d94e96ef84c9b4c16661d194e1, type: 3}
    m_GameObject: {fileID: 0}
    m_MinAnimationSpeed: 1
    m_MaxAnimationSpeed: 1
    m_PerlinScale: 0.5
    m_Output: 0
    m_ColliderType: 1
    m_RandomTransform: 0
    m_Neighbors: 02000000010000000100000001000000
    m_NeighborPositions:
    - {x: -1, y: 1, z: 0}
    - {x: 0, y: 1, z: 0}
    - {x: 0, y: -1, z: 0}
    - {x: 1, y: 0, z: 0}
    m_RuleTransform: 0
  - m_Id: 11
    m_Sprites:
    - {fileID: -8638585676734002002, guid: df7200d94e96ef84c9b4c16661d194e1, type: 3}
    m_GameObject: {fileID: 0}
    m_MinAnimationSpeed: 1
    m_MaxAnimationSpeed: 1
    m_PerlinScale: 0.5
    m_Output: 0
    m_ColliderType: 1
    m_RandomTransform: 0
    m_Neighbors: 01000000010000000100000001000000
    m_NeighborPositions:
    - {x: 0, y: 1, z: 0}
    - {x: -1, y: 0, z: 0}
    - {x: 1, y: 0, z: 0}
    - {x: 0, y: -1, z: 0}
    m_RuleTransform: 0
